<svg xmlns="http://www.w3.org/2000/svg" viewBox="0 0 1140 360" enable-background="new 0 0 1140 360" xmlns:xlink="http://www.w3.org/1999/xlink">
	<defs>
		<style>.cls-1{fill:#0054a4;}</style>
	</defs>
	<title>Prospect Medical Holdings, INC_1</title>
	<g id="Layer_2" data-name="Layer 2">
		<g id="Layer_2-2" data-name="Layer 2">
			<line x1="52.98" y1="15.57" x2="137.61" y2="15.57"/>
			<rect x="52.98" y="15.14" width="138.78" height="0.86"/>
			<line x1="69.27" y1="33.64" x2="137.61" y2="33.64"/>
			<rect x="69.27" y="33.21" width="122.48" height="0.86"/>
			<line x1="52.98" y1="51.32" x2="137.61" y2="51.32"/>
			<rect x="52.98" y="50.89" width="138.78" height="0.86"/>
			<path class="cls-1" d="M40.8,10.54l-.9-.91H27.49l-.92.91H40.8ZM37.18,6.89H30.24l-.92.92h8.77Zm-.05,36.66a25.88,25.88,0,0,1-10.42.19s0-.07,0-.19Zm6.25-2.75A17.49,17.49,0,0,1,40,42.63H27.19c.27-.49.63-1.12,1.06-1.83Zm3-2.75a14.55,14.55,0,0,1-1.82,1.83H31.78c.71-.61,1.72-1.74.41-1.63-.92.07-1.76.14-2.51.22l.26-.42ZM48.2,35.3a14.48,14.48,0,0,1-1.1,1.83H30.52l1.16-1.83Zm-15.51-8c-.26.47-.59,1-1,1.57H22.81l.39-.12c4.3-1.26,9.78-1.94,9.5-1.46m16.38,5.25a5.73,5.73,0,0,1-.44,1.83H32.27l1.14-1.83ZM48,29.8a3.51,3.51,0,0,1,1,1.83H34l.83-1.32.33-.51ZM35.45,27.21a.59.59,0,0,0,.09-.16h4a20.78,20.78,0,0,1,5.95,1.22,9,9,0,0,1,1.34.61H35.66c.11-.5-.39-1.4-.21-1.67m-14.66,25,.7-1.25.8.79H45.4l.84-.84v-.08H21.56c.65-1.13,1.08-1.77,1.34-1.74A42.6,42.6,0,0,0,34.31,49H48.14l.92-.92H38.44A25.83,25.83,0,0,0,43,46.3h7.86l.73-.74v-.18h-7a22.18,22.18,0,0,0,2.53-1.83h6.45l.77-.77v-.16H48.22a20.41,20.41,0,0,0,1.69-1.83h6.48l.83-.83v-.09H50.61A19.5,19.5,0,0,0,51.79,38h7.36l.76-.76v-.16H52.27A16.41,16.41,0,0,0,53,35.3h8.84l.79-.78v-.14H53.35c.16-.52.29-1,.39-1.56,0-.09,0-.18,0-.27h8.85l-.91-.92H53.92a9.59,9.59,0,0,0,0-1.83h6L59,28.88H53.76a9,9,0,0,0-.61-1.83h4l-.91-.92H52.67A9.61,9.61,0,0,0,51.2,24.3h3.25l-.91-.92H50.15A14.17,14.17,0,0,0,47,21.55H51.7v0l-.88-.89h-6.6a25,25,0,0,0-4.28-.69,48.67,48.67,0,0,0-13,.55l-.71.14H16.48l-.91.92h7.34a26.26,26.26,0,0,0-4.48,1.83H13.74l-.92.92h4.49c-.33.48-.79,1.13-1.28,1.83H11l-.92.92h5.34c-.41.63-.8,1.26-1.11,1.83H8.24l-.86.86v.06h6.5a1.7,1.7,0,0,0-.14,1c.45,1.48,3.37.22,6.5-1H31.12c-.38.57-.8,1.18-1.25,1.83H5.49l-.92.92H29.23l-1.29,1.83H4.87l.92.92h21.5L26,37.13H7.62l.92.92H25.35c-.26.37-.53.74-.79,1.12-.42.09-.78.17-1.11.26-.56.14-1.08.3-1.56.45H10.37l.92.92h8.15c-1.05.46-1.78.87-2.27,1.11a3.31,3.31,0,0,0-.88.72H13.12l.92.92h1.6a2.24,2.24,0,0,0,.7,3,10,10,0,0,0,2.27,1.38l-.84,1.31L2,33.48,33.67,1.83,65.31,33.48,33.67,65.13ZM33.62,0,0,33.62,16.92,50.55c-1.49,2.38-2.86,4.74-4,7-.63,1.24-.7,2.67.83,3.2,2.4.86,2.84-1,4.78-4.39.56-1,1.06-1.88,1.51-2.7l13.59,13.6L67.24,33.62Zm9.91,13.29-.9-.9H24.74l-.83.83v.09H43.53ZM35.29,5l-.84-.84H33L32.11,5v0h3.17Zm-16,12.91-.87.86v.05H49l-.91-.92ZM33.16,62.67h1.36L35.2,62v-.24h-3ZM30.53,60h6.61l.79-.79v-.13H29.61ZM45.36,15.14H22l-.85.86v.06H46.27ZM25,54.55H42.64l.87-.87v0H24.12Zm2.75,2.75H39.89l.79-.79v-.13H26.87Z"/><path d="M71.82,29.92c-.74,0-.78,0-1.47,0l-.08-.09c0-.84,0-1.5,0-3.06,0-2.07,0-4.2-.12-6.24l.07-.09,1.46,0,.88,0a7.39,7.39,0,0,1,2.21.2,2.63,2.63,0,0,1,1.87,2.64,2.89,2.89,0,0,1-.4,1.5C75.5,26,74,26.33,72.41,26.33h-.6c0,1.45,0,1.87.09,3.51Zm1.34-4.74a2.15,2.15,0,0,0,1.79-1,2,2,0,0,0,.23-1,2,2,0,0,0-.16-.83,2,2,0,0,0-2-.94,11.5,11.5,0,0,0-1.2.05c0,.62,0,1.24,0,1.87s0,1.2,0,1.81C72.25,25.22,72.8,25.22,73.16,25.18Z"/><path d="M79.84,29.92c-.76,0-.78,0-1.47,0l-.08-.09c0-1.3.05-2.61.05-3.91,0-3-.05-4.05-.13-5.39l.08-.09h2.5a6.39,6.39,0,0,1,2.1.23A2.29,2.29,0,0,1,84.57,23a2.67,2.67,0,0,1-2.29,2.62c.23.31,1.27,1.83,1.51,2.18.41.59.6.86,1.43,2l-.05.13h-.82l-.84.05-.09-.07-.16-.28c-.39-.68-.84-1.32-1.27-2-.8-1.22-.88-1.35-1.21-1.78-.41,0-.5,0-1,0,0,.74,0,2.8.09,3.92Zm2.73-5.63a1.46,1.46,0,0,0,.51-1.12,1.79,1.79,0,0,0-.25-.92c-.43-.66-1.15-.7-2.15-.7H79.8c0,1.55,0,1.77,0,3.25A4.27,4.27,0,0,0,82.57,24.28Z"/><path d="M85.93,25.26c0-3,1.61-5,4.38-5s4.32,1.86,4.32,5-1.73,4.88-4.36,4.88S85.93,28.23,85.93,25.26ZM93,25.17a5.7,5.7,0,0,0-.58-2.64,2.6,2.6,0,0,0-4.31,0,5.46,5.46,0,0,0-.6,2.65,5.61,5.61,0,0,0,.55,2.57A2.45,2.45,0,0,0,90.29,29C92.26,29,93,27.2,93,25.17Z"/><path d="M99.67,24.56c1,.43,2.28,1,2.28,2.7,0,1.5-1.11,2.85-3.44,2.85a5.8,5.8,0,0,1-2.65-.59l-.05-.09c.05-.47.07-.72.11-1.23l.13-.05a3.94,3.94,0,0,0,2.36.79c1.38,0,2-.71,2-1.51s-.78-1.3-1.65-1.63L98,25.5c-1-.44-2.22-1-2.22-2.65a2.47,2.47,0,0,1,.42-1.4A3.29,3.29,0,0,1,99,20.27a7,7,0,0,1,2.41.43l.07.11c-.05.51-.07.7-.11,1.18l-.11.05a4.42,4.42,0,0,0-2.21-.62c-1.11,0-1.81.52-1.81,1.31A1.2,1.2,0,0,0,98,23.79a7.24,7.24,0,0,0,1,.48Z"/><path d="M105,29.92c-.74,0-.78,0-1.47,0l-.08-.09c0-.84,0-1.5,0-3.06,0-2.07,0-4.2-.12-6.24l.07-.09,1.46,0,.88,0a7.39,7.39,0,0,1,2.21.2,2.63,2.63,0,0,1,1.87,2.64,2.89,2.89,0,0,1-.4,1.5c-.78,1.3-2.28,1.58-3.87,1.58H105c0,1.45,0,1.87.09,3.51Zm1.34-4.74a2.15,2.15,0,0,0,1.79-1,2,2,0,0,0,.23-1,2,2,0,0,0-.16-.83,2,2,0,0,0-2-.94,11.5,11.5,0,0,0-1.2.05c0,.62,0,1.24,0,1.87s0,1.2,0,1.81C105.44,25.22,106,25.22,106.35,25.18Z"/><path d="M117.22,28.82c0,.46,0,.55-.07,1l-.09.09c-2.61,0-3,0-5.57,0l-.07-.09c0-1.06.08-1.78.08-4.23,0-2.25,0-3.53-.09-5.07l.08-.09,5.62,0,.08.09c0,.4-.07.56-.09,1l-.08.09c-1.73-.05-2.3-.05-4-.07,0,1.23,0,1.62,0,2.85,1.65,0,2.15,0,3.79,0l.07.09a9.26,9.26,0,0,0-.07,1l-.08.09c-1.55,0-1.89,0-3.71,0,0,1.55,0,1.93,0,3.2,2,0,2.44,0,4.16-.07Z"/><path d="M125.38,28.11c-.05.63-.07.82-.09,1.32l-.08.09a5.28,5.28,0,0,1-2.53.59c-2.93,0-4.66-1.94-4.66-4.92a5.19,5.19,0,0,1,1.22-3.55,4.54,4.54,0,0,1,3.53-1.38,6.7,6.7,0,0,1,2.45.43l.05.11c-.07.48-.08.62-.12,1.19L125,22a3.71,3.71,0,0,0-2.13-.6c-2.14,0-3.31,1.47-3.31,3.72,0,2.53,1.38,3.71,3.23,3.71a4.06,4.06,0,0,0,2.46-.82Z"/><path d="M132.24,21.62c-1.12,0-1.31,0-2.46,0,0,1.34,0,1.55,0,2.74,0,3.36.05,4.68.09,5.49l-.08.09c-.76,0-.8,0-1.54,0l-.07-.09c.07-1.87.08-3.75.08-5.62,0-1.37,0-2.07,0-2.65-1.16,0-1.3,0-2.49.05l-.08-.09c0-.47,0-.52.05-1l.07-.09h3.47l3.09,0,.07.09a9.41,9.41,0,0,0-.05,1Z"/><path d="M146.4,20.52c.07,3.1.17,6.2.35,9.3l-.07.09c-.67,0-.75,0-1.45,0l-.08-.09c0-1.51,0-2,0-3.45l0-1.42c0-1,0-3,0-3.51-.21.78-.41,1.49-1,3.36l-.62,1.94c-.5,1.49-.66,2-1,3l-.08.09c-.72,0-.79,0-1.55,0l-.08-.09-.2-.67c-.11-.42-.7-2.41-.83-2.85l-.54-1.87c-.54-1.91-.59-2.13-.78-3,0,1.34,0,1.63-.07,3l-.09,2.4c-.05,1.58-.05,1.93-.07,3l-.07.09c-.64,0-.72,0-1.29,0l-.07-.09c0-.27.05-.55.08-.82.13-1.59.19-3.19.28-4.78.13-2.38.15-2.53.15-3.71l.08-.09c1,0,1.22,0,2.06,0l.09.09c.24,1.07.47,1.85.74,2.76l1.46,5.41,1.7-5.58c.54-1.74.56-1.81.76-2.54l.08-.09c1,0,1.1,0,2,0Z"/><path d="M154.55,28.82c0,.46,0,.55-.07,1l-.09.09c-2.61,0-3,0-5.57,0l-.07-.09c0-1.06.08-1.78.08-4.23,0-2.25,0-3.53-.09-5.07l.08-.09,5.62,0,.08.09c0,.4-.07.56-.09,1l-.08.09c-1.73-.05-2.3-.05-4-.07,0,1.23,0,1.62,0,2.85,1.65,0,2.15,0,3.79,0l.07.09a9.26,9.26,0,0,0-.07,1l-.08.09c-1.55,0-1.89,0-3.71,0,0,1.55,0,1.93,0,3.2,2,0,2.44,0,4.16-.07Z"/><path d="M156,30l-.07-.09c0-1.08.05-2.09.05-3.47,0-3.73-.05-4.83-.12-5.83l.08-.09,2,0a7.16,7.16,0,0,1,4.05.67A4.45,4.45,0,0,1,163.77,25a6,6,0,0,1-.36,2.18,4.26,4.26,0,0,1-4,2.76,22.23,22.23,0,0,1-2.5.05Zm5.83-3.13a5.44,5.44,0,0,0,.32-2,3.5,3.5,0,0,0-1-2.68,3.65,3.65,0,0,0-2.4-.67l-1.3,0c0,.84,0,1.32,0,3.33,0,2.45,0,2.74,0,4C159.33,28.85,161.06,28.87,161.88,26.83Z"/><path d="M167,20.52c0,.9-.07,2-.07,4.26,0,2.57,0,3.67.11,5l-.08.09-1.49,0-.08-.09c0-.82.05-1.53.05-3.25,0-2,0-4-.09-6l.07-.11c.59,0,.8,0,1.49,0Z"/><path d="M175.95,28.11c-.05.63-.07.82-.09,1.32l-.08.09a5.29,5.29,0,0,1-2.53.59c-2.93,0-4.66-1.94-4.66-4.92a5.19,5.19,0,0,1,1.22-3.55,4.54,4.54,0,0,1,3.53-1.38,6.7,6.7,0,0,1,2.45.43l.05.11c-.07.48-.08.62-.12,1.19l-.12.05a3.71,3.71,0,0,0-2.13-.6c-2.14,0-3.31,1.47-3.31,3.72,0,2.53,1.38,3.71,3.23,3.71a4.06,4.06,0,0,0,2.46-.82Z"/><path d="M181.78,20.75c.44,1.47,1,3.13,1.35,4.4s1.08,3.35,1.49,4.63l-.05.11c-.7,0-1,0-1.55.05l-.09-.09c-.33-1.26-.44-1.62-.79-2.82H178.8c-.39,1.26-.47,1.58-.79,2.77l-.09.09c-.58,0-.71,0-1.38,0l-.05-.09a3.72,3.72,0,0,1,.15-.41q.76-2.17,1.49-4.34c.8-2.37,1.1-3.24,1.49-4.52l.11-.09c.94,0,1.06,0,1.91-.05l.09.09ZM179.13,26h2.69l-1.29-4.52Z"/><path d="M190.83,28.79c0,.44,0,.64-.07,1l-.07.09c-2.38,0-2.58,0-5.1,0l-.08-.09c0-1.08.07-2.69.07-5,0-2.06,0-3.2-.11-4.27l.09-.09,1.54,0,.08.08c-.13,2.5-.13,5.71-.13,6,0,1,0,1.58,0,2.21,1.49,0,1.89,0,3.67-.07Z"/><path d="M77.21,47.85c-.71,0-.76,0-1.51,0l-.08-.09c0-1.5.08-3.12.07-4.5H74.43l-3.12,0c0,2.54,0,3.44.09,4.44l-.07.09c-.74,0-.78,0-1.51,0l-.08-.09c.05-1.31.07-2,.07-6,0-1.81,0-2.45-.08-3.25l.08-.09,1.49,0,.07.09c0,.79,0,1.89,0,3.72.7,0,1.07,0,1.94,0,1.23,0,1.79,0,2.42,0,0-2.54,0-2.84-.09-3.67l.07-.09,1.49,0,.07.09c0,1.3-.05,2.14-.05,4.48,0,2.6.05,3.59.13,4.82Z"/><path d="M80.91,43.19c0-3,1.61-5,4.38-5s4.32,1.86,4.32,5S87.88,48,85.25,48,80.91,46.16,80.91,43.19ZM88,43.1a5.7,5.7,0,0,0-.58-2.64,2.6,2.6,0,0,0-4.31,0,5.47,5.47,0,0,0-.6,2.65,5.61,5.61,0,0,0,.55,2.57,2.45,2.45,0,0,0,2.19,1.26C87.24,46.94,88,45.13,88,43.1Z"/><path d="M98.6,46.73c0,.44,0,.64-.07,1l-.07.09c-2.38,0-2.58,0-5.1,0l-.08-.09c0-1.08.07-2.69.07-5,0-2.06,0-3.2-.11-4.27l.09-.09,1.54,0,.08.08c-.13,2.5-.13,5.71-.13,6,0,1,0,1.58,0,2.21,1.49,0,1.89,0,3.67-.07Z"/><path d="M101.8,47.89l-.07-.09c0-1.08.05-2.09.05-3.47,0-3.73-.05-4.83-.12-5.83l.08-.09,2,0a7.16,7.16,0,0,1,4.05.67,4.45,4.45,0,0,1,1.75,3.85,6,6,0,0,1-.36,2.18,4.26,4.26,0,0,1-4,2.76,22.22,22.22,0,0,1-2.5.05Zm5.83-3.13a5.45,5.45,0,0,0,.32-2,3.5,3.5,0,0,0-1-2.68,3.65,3.65,0,0,0-2.4-.67l-1.3,0c0,.84,0,1.33,0,3.33,0,2.45,0,2.74,0,4C105.08,46.78,106.82,46.81,107.64,44.76Z"/><path d="M114.81,38.46c0,.9-.07,2-.07,4.26,0,2.57,0,3.67.11,5l-.08.09-1.49,0-.08-.09c0-.82.05-1.52.05-3.25,0-2,0-4-.09-6l.07-.11c.59,0,.8,0,1.49,0Z"/><path d="M126.6,47.76l-.07.09c-.79,0-.84,0-1.65,0l-.11-.09c-.79-1.4-1.58-2.81-2.38-4.21l-2.11-3.77.13,4.59c0,.56,0,1.11.05,1.67,0,1.11,0,1.14.07,1.69l-.08.09c-.59,0-.64,0-1.29,0l-.08-.09c.05-1.27.07-2.56.07-3.83,0-1.82,0-3.65-.08-5.47l.07-.09,1.73,0,.13.09c.91,1.63,1.85,3.33,2.73,4.88l1.66,2.93-.11-4.44c-.05-2.1-.07-2.41-.12-3.33l.08-.09c.6,0,.74,0,1.27,0l.08.09c0,1.63-.05,3.31-.05,5,0,1.26,0,2.53,0,3.79Z"/><path d="M138.11,43.29c-.05,1.06-.07,2.13-.07,2.93,0,.55,0,.79,0,1.19l-.08.09a7.38,7.38,0,0,1-2.84.55,4.45,4.45,0,0,1-4.92-4.8,5.34,5.34,0,0,1,1.27-3.63A4.47,4.47,0,0,1,135,38.2a6.23,6.23,0,0,1,2.73.58l.07.09c-.07.47-.09.68-.15,1.3l-.11,0a4.19,4.19,0,0,0-2.46-.8,2.94,2.94,0,0,0-2.48,1.18,4.57,4.57,0,0,0-.74,2.68c0,2.21,1.15,3.64,3.31,3.64a4.18,4.18,0,0,0,1.38-.23v-1c0-1-.05-1.83-.08-2.33l.08-.09c.72,0,.87,0,1.5,0Z"/><path d="M145.25,42.5c1,.43,2.28,1,2.28,2.7,0,1.5-1.11,2.85-3.44,2.85a5.81,5.81,0,0,1-2.65-.59l-.05-.09c.05-.47.07-.72.11-1.23l.13-.05a3.94,3.94,0,0,0,2.36.79c1.38,0,2-.71,2-1.51s-.78-1.3-1.65-1.63l-.67-.29c-1-.44-2.22-1-2.22-2.65a2.47,2.47,0,0,1,.42-1.41,3.29,3.29,0,0,1,2.81-1.18,7,7,0,0,1,2.41.43l.07.11c-.05.51-.07.7-.11,1.18l-.11.05a4.42,4.42,0,0,0-2.21-.62c-1.11,0-1.81.52-1.81,1.31a1.2,1.2,0,0,0,.68,1.06,7.24,7.24,0,0,0,1,.48Z"/><path d="M152.61,46.36c-.46,1.1-1,2.62-1.25,3.39l-.09.09c-.44,0-.47,0-1,0l-.05-.08A32.78,32.78,0,0,0,151,46.4l.08-.09c.64,0,.78,0,1.5-.05Z"/><path d="M163.68,38.46c0,.9-.07,2-.07,4.26,0,2.57,0,3.67.11,5l-.08.09-1.49,0-.08-.09c0-.82.05-1.52.05-3.25,0-2,0-4-.09-6l.07-.11c.59,0,.8,0,1.49,0Z"/><path d="M175.47,47.76l-.07.09c-.79,0-.84,0-1.65,0l-.11-.09c-.79-1.4-1.58-2.81-2.38-4.21l-2.11-3.77.13,4.59c0,.56,0,1.11.05,1.67,0,1.11,0,1.14.07,1.69l-.08.09c-.59,0-.64,0-1.29,0l-.08-.09c.05-1.27.07-2.56.07-3.83,0-1.82,0-3.65-.08-5.47l.07-.09,1.73,0,.13.09c.91,1.63,1.85,3.33,2.73,4.88l1.66,2.93-.11-4.44c-.05-2.1-.07-2.41-.12-3.33l.08-.09c.6,0,.74,0,1.27,0l.08.09c0,1.63-.05,3.31-.05,5,0,1.26,0,2.53,0,3.79Z"/><path d="M186.48,46c-.05.63-.07.82-.09,1.32l-.08.09a5.29,5.29,0,0,1-2.53.59c-2.93,0-4.66-1.94-4.66-4.92a5.19,5.19,0,0,1,1.22-3.55,4.54,4.54,0,0,1,3.53-1.38,6.7,6.7,0,0,1,2.45.43l.05.11c-.07.48-.08.62-.12,1.19l-.12.05a3.71,3.71,0,0,0-2.13-.6c-2.14,0-3.31,1.47-3.31,3.72,0,2.53,1.38,3.71,3.23,3.71a4.06,4.06,0,0,0,2.46-.82Z"/><path d="M191.19,46.32c0,.63,0,.83,0,1.38l-.09.12-1.49.07-.09-.11c0-.23,0-.47,0-.71s0-.45,0-.68l.11-.12c.71,0,.84,0,1.45-.05Z"/>
		</g>
	</g>
</svg>